{
  "showThemeCredit": false,
  "name": "Thomas Massmann",
  "shortDesc": "Software-/Web developer with strong focus on a11y, problem solver, dad. Living in Kaufbeuren, Germany.",
  "url": "https://thomas.massmann.me",
  "authorEmail": "thomas@massmann.me",
  "authorHandle": "@thomasmassmann",
  "authorName": "Thomas Massmann",
  "enableThirdPartyComments": false,
  "maxPostsPerPage": 5,
  "paymentPointer": null,
  "faviconPath": "/images/favicon.png"
}
